# Alias OBJ Model File
# Exported from SketchUp, (c) 2000-2012 Trimble Navigation Limited
# File units = meters

mtllib HospitalFloor.mtl

g Mesh1 Model

usemtl FrontColor
v 6.11 1.56381 5.94909
vt -240.551 -234.216
vn 0 -1 -0
v 0 1.56381 5.94909
vt 0 -234.216
v 0 1.56381 3.03909
vt 0 -119.649
v 6.11 1.56381 3.03909
vt -240.551 -119.649
f 1/1/1 2/2/1 3/3/1 4/4/1 

